Lampenadapter
HC/359837/ChillBear/CUST/lamp/Lampe/wantedState
an: 3342528
aus: 3342336
Protocol: 1
length: 24 bit
pulse: 220 ms

Fun:
HC/359837/ChillBear/CUST/fun/Fun/wantedState
plus: 11162881
minus: 11162885
on/off: 11162883
left: 11162882
right: 11162884
Protocol: 1
length: 24
pulse: 260

Bell:
HC/359837/ChillBear/CUST/bell/Alarm/wantedState
button: 657556947 / 1239602579
Protocol: 2
length: 32
pulse: 720
