EESchema Schematic File Version 4
LIBS:ChillBear-cache
EELAYER 26 0
EELAYER END
$Descr A4 11693 8268
encoding utf-8
Sheet 1 1
Title ""
Date ""
Rev ""
Comp ""
Comment1 ""
Comment2 ""
Comment3 ""
Comment4 ""
$EndDescr
$Comp
L ChillBear-rescue:ESP-01v090 U1
U 1 1 5BAA1A13
P 3350 2700
F 0 "U1" H 3350 2600 50  0000 C CNN
F 1 "ESP-01" H 3350 2800 50  0000 C CNN
F 2 "" H 3350 2700 50  0001 C CNN
F 3 "" H 3350 2700 50  0001 C CNN
	1    3350 2700
	1    0    0    -1  
$EndComp
$Comp
L ChillBear-rescue:R R1
U 1 1 5BAA1B34
P 5150 1500
F 0 "R1" V 5230 1500 50  0000 C CNN
F 1 "1k" V 5150 1500 50  0000 C CNN
F 2 "" V 5080 1500 50  0000 C CNN
F 3 "" H 5150 1500 50  0000 C CNN
	1    5150 1500
	1    0    0    -1  
$EndComp
$Comp
L ChillBear-rescue:R R2
U 1 1 5BAA1BA3
P 5650 1500
F 0 "R2" V 5730 1500 50  0000 C CNN
F 1 "1k" V 5650 1500 50  0000 C CNN
F 2 "" V 5580 1500 50  0000 C CNN
F 3 "" H 5650 1500 50  0000 C CNN
	1    5650 1500
	1    0    0    -1  
$EndComp
$Comp
L ChillBear-rescue:SW_PUSH SW1
U 1 1 5BAA1C2A
P 5150 2200
F 0 "SW1" H 5300 2310 50  0000 C CNN
F 1 "RESET" H 5150 2120 50  0000 C CNN
F 2 "" H 5150 2200 50  0000 C CNN
F 3 "" H 5150 2200 50  0000 C CNN
	1    5150 2200
	0    1    1    0   
$EndComp
$Comp
L ChillBear-rescue:SW_PUSH SW2
U 1 1 5BAA1C9A
P 5650 2200
F 0 "SW2" H 5800 2310 50  0000 C CNN
F 1 "Flash" H 5650 2120 50  0000 C CNN
F 2 "" H 5650 2200 50  0000 C CNN
F 3 "" H 5650 2200 50  0000 C CNN
	1    5650 2200
	0    1    1    0   
$EndComp
$Comp
L ChillBear-rescue:CONN_01X02 P1
U 1 1 5BAA1D0B
P 1000 1050
F 0 "P1" H 1000 1200 50  0000 C CNN
F 1 "Power" V 1100 1050 50  0000 C CNN
F 2 "" H 1000 1050 50  0000 C CNN
F 3 "" H 1000 1050 50  0000 C CNN
	1    1000 1050
	-1   0    0    1   
$EndComp
$Comp
L ChillBear-rescue:CONN_01X04 P2
U 1 1 5BAA1E5C
P 1000 1950
F 0 "P2" H 1000 2200 50  0000 C CNN
F 1 "Serial" V 1100 1950 50  0000 C CNN
F 2 "" H 1000 1950 50  0000 C CNN
F 3 "" H 1000 1950 50  0000 C CNN
	1    1000 1950
	-1   0    0    -1  
$EndComp
$Comp
L ChillBear-rescue:CONN_01X04 P3
U 1 1 5BAA1F6E
P 5800 3650
F 0 "P3" H 5800 3900 50  0000 C CNN
F 1 "433MHz Transmitter" V 5900 3650 50  0000 C CNN
F 2 "" H 5800 3650 50  0000 C CNN
F 3 "" H 5800 3650 50  0000 C CNN
	1    5800 3650
	1    0    0    -1  
$EndComp
$Comp
L power:+3.3V #PWR?
U 1 1 5BAA1FC1
P 2250 800
F 0 "#PWR?" H 2250 650 50  0001 C CNN
F 1 "+3.3V" H 2250 940 50  0000 C CNN
F 2 "" H 2250 800 50  0000 C CNN
F 3 "" H 2250 800 50  0000 C CNN
	1    2250 800 
	1    0    0    -1  
$EndComp
$Comp
L power:GND #PWR?
U 1 1 5BAA1FE5
P 2250 1350
F 0 "#PWR?" H 2250 1100 50  0001 C CNN
F 1 "GND" H 2250 1200 50  0000 C CNN
F 2 "" H 2250 1350 50  0000 C CNN
F 3 "" H 2250 1350 50  0000 C CNN
	1    2250 1350
	1    0    0    -1  
$EndComp
$Comp
L power:GND #PWR?
U 1 1 5BAA2009
P 5400 2950
F 0 "#PWR?" H 5400 2700 50  0001 C CNN
F 1 "GND" H 5400 2800 50  0000 C CNN
F 2 "" H 5400 2950 50  0000 C CNN
F 3 "" H 5400 2950 50  0000 C CNN
	1    5400 2950
	1    0    0    -1  
$EndComp
$Comp
L power:GND #PWR?
U 1 1 5BAA202D
P 2400 4300
F 0 "#PWR?" H 2400 4050 50  0001 C CNN
F 1 "GND" H 2400 4150 50  0000 C CNN
F 2 "" H 2400 4300 50  0000 C CNN
F 3 "" H 2400 4300 50  0000 C CNN
	1    2400 4300
	1    0    0    -1  
$EndComp
Wire Wire Line
	1200 1000 1550 1000
Wire Wire Line
	5150 1000 5150 1350
Wire Wire Line
	5650 1000 5650 1350
Connection ~ 5150 1000
Wire Wire Line
	2250 800  2250 1000
Connection ~ 2250 1000
Wire Wire Line
	5150 1650 5150 1750
Wire Wire Line
	5650 1650 5650 1850
Wire Wire Line
	4300 2550 5150 2550
Wire Wire Line
	5150 2550 5150 2500
Wire Wire Line
	1200 1800 1550 1800
Wire Wire Line
	1550 1000 1550 1800
Connection ~ 1550 1000
Wire Wire Line
	1550 2850 2400 2850
Connection ~ 1550 1800
Wire Wire Line
	1200 1100 1350 1100
Wire Wire Line
	1200 1900 1350 1900
Wire Wire Line
	1350 1900 1350 1100
Connection ~ 1350 1100
Wire Wire Line
	1200 2000 2400 2000
Wire Wire Line
	2400 2000 2400 2550
Wire Wire Line
	1200 2100 4500 2100
Wire Wire Line
	4500 2100 4500 2850
Wire Wire Line
	4500 2850 4300 2850
Wire Wire Line
	2400 2750 2100 2750
Wire Wire Line
	2100 2750 2100 1750
Wire Wire Line
	2100 1750 5150 1750
Connection ~ 5150 1750
Wire Wire Line
	5650 2550 5650 2500
Connection ~ 5150 2550
Wire Wire Line
	5400 2950 5400 2850
Connection ~ 5400 2550
Connection ~ 5650 1850
Wire Wire Line
	2250 1100 2250 1350
Wire Wire Line
	5400 2850 5600 2850
Wire Wire Line
	5600 2850 5600 3500
Connection ~ 5400 2850
Wire Wire Line
	5600 3600 4850 3600
Wire Wire Line
	4850 3600 4850 1000
Connection ~ 4850 1000
Wire Wire Line
	4300 2650 4700 2650
Wire Wire Line
	4700 2650 4700 3700
Wire Wire Line
	4700 3700 5600 3700
Wire Wire Line
	2400 2650 1550 2650
Connection ~ 1550 2650
Wire Wire Line
	4300 2750 4600 2750
Wire Wire Line
	4600 2750 4600 1850
Wire Wire Line
	4600 1850 5650 1850
Wire Wire Line
	5150 1000 5650 1000
Wire Wire Line
	2250 1000 4850 1000
Wire Wire Line
	1550 1000 2250 1000
Wire Wire Line
	1550 1800 1550 2650
Wire Wire Line
	1350 1100 2250 1100
Wire Wire Line
	5150 1750 5150 1900
Wire Wire Line
	5150 2550 5400 2550
Wire Wire Line
	5400 2550 5650 2550
Wire Wire Line
	5650 1850 5650 1900
Wire Wire Line
	5400 2850 5400 2550
Wire Wire Line
	4850 1000 5150 1000
Wire Wire Line
	1550 2650 1550 2850
$EndSCHEMATC
